UART/UART_Tx_tb.vcd
$date
	Mon Mar 02 08:26:33 2026
$end
$version
	Icarus Verilog
$end
$timescale
	1s
$end
$scope module UART_Tx_tb $end
$var wire 1 ! tx_out $end
$var wire 1 " busy $end
$var reg 1 # clk $end
$var reg 8 $ data_in [7:0] $end
$var reg 1 % rst $end
$var reg 1 & start $end
$scope module uut $end
$var wire 1 # clk $end
$var wire 8 ' data_in [7:0] $end
$var wire 1 % rst $end
$var wire 1 & start $end
$var parameter 32 ( BAUD_RATE $end
$var parameter 32 ) BITS $end
$var parameter 32 * CLOCK_FREQ $end
$var parameter 2 + DATA_BITS $end
$var parameter 2 , IDLE $end
$var parameter 2 - START_BIT $end
$var parameter 2 . STOP_BIT $end
$var reg 16 / baud_counter [15:0] $end
$var reg 4 0 bit_index [3:0] $end
$var reg 1 " busy $end
$var reg 8 1 data_buffer [7:0] $end
$var reg 2 2 state [1:0] $end
$var reg 1 ! tx_out $end
$upscope $end
$upscope $end
$enddefinitions $end
$comment Show the parameter values. $end
$dumpall
b11 .
b1 -
b0 ,
b10 +
b10111110101111000010000000 *
b1000 )
b10010110000000 (
$end
#0
$dumpvars
b0 2
bx 1
b0 0
b0 /
b0 '
0&
1%
b0 $
x#
0"
1!
$end
#40
0%
#60
1&
b100100 $
b100100 '
#80
0&
#100
1&
b10000001 $
b10000001 '
#120
0&
#140
1&
b1001 $
b1001 '
#160
0&
#180
1&
b1100011 $
b1100011 '
#200
0&
#220
1&
b1101 $
b1101 '
#240
0&
#260
1&
b10001101 $
b10001101 '
#280
0&
#300
1&
b1100101 $
b1100101 '
#320
0&
#340
1&
b10010 $
b10010 '
#360
0&
#380
1&
b1 $
b1 '
#400
0&
#420
1&
b1101 $
b1101 '
#440
0&
