BCD_displays/simulation/questa/pass_sw_tb.vcd
$date
	Fri Feb 27 08:18:26 2026
$end
$version
	Questa Altera Starter FPGA Edition Version 2025.2
$end
$timescale
	1ps
$end

$scope module pass_sw_tb $end
$var reg 4 ! SW [3:0] $end
$var reg 2 " KEY [1:0] $end
$var wire 1 # HEX0 [0] $end
$var wire 1 $ HEX0 [1] $end
$var wire 1 % HEX0 [2] $end
$var wire 1 & HEX0 [3] $end
$var wire 1 ' HEX0 [4] $end
$var wire 1 ( HEX0 [5] $end
$var wire 1 ) HEX0 [6] $end
$var wire 1 * HEX1 [0] $end
$var wire 1 + HEX1 [1] $end
$var wire 1 , HEX1 [2] $end
$var wire 1 - HEX1 [3] $end
$var wire 1 . HEX1 [4] $end
$var wire 1 / HEX1 [5] $end
$var wire 1 0 HEX1 [6] $end
$var wire 1 1 HEX2 [0] $end
$var wire 1 2 HEX2 [1] $end
$var wire 1 3 HEX2 [2] $end
$var wire 1 4 HEX2 [3] $end
$var wire 1 5 HEX2 [4] $end
$var wire 1 6 HEX2 [5] $end
$var wire 1 7 HEX2 [6] $end
$var wire 1 8 HEX3 [0] $end
$var wire 1 9 HEX3 [1] $end
$var wire 1 : HEX3 [2] $end
$var wire 1 ; HEX3 [3] $end
$var wire 1 < HEX3 [4] $end
$var wire 1 = HEX3 [5] $end
$var wire 1 > HEX3 [6] $end

$scope module dut $end
$var parameter 32 ? S0 $end
$var parameter 32 @ S1 $end
$var parameter 32 A S2 $end
$var parameter 32 B S3 $end
$var parameter 32 C OK $end
$var parameter 32 D ERR $end
$var wire 1 E SW [3] $end
$var wire 1 F SW [2] $end
$var wire 1 G SW [1] $end
$var wire 1 H SW [0] $end
$var wire 1 I KEY [1] $end
$var wire 1 J KEY [0] $end
$var wire 1 # HEX0 [0] $end
$var wire 1 $ HEX0 [1] $end
$var wire 1 % HEX0 [2] $end
$var wire 1 & HEX0 [3] $end
$var wire 1 ' HEX0 [4] $end
$var wire 1 ( HEX0 [5] $end
$var wire 1 ) HEX0 [6] $end
$var wire 1 * HEX1 [0] $end
$var wire 1 + HEX1 [1] $end
$var wire 1 , HEX1 [2] $end
$var wire 1 - HEX1 [3] $end
$var wire 1 . HEX1 [4] $end
$var wire 1 / HEX1 [5] $end
$var wire 1 0 HEX1 [6] $end
$var wire 1 1 HEX2 [0] $end
$var wire 1 2 HEX2 [1] $end
$var wire 1 3 HEX2 [2] $end
$var wire 1 4 HEX2 [3] $end
$var wire 1 5 HEX2 [4] $end
$var wire 1 6 HEX2 [5] $end
$var wire 1 7 HEX2 [6] $end
$var wire 1 8 HEX3 [0] $end
$var wire 1 9 HEX3 [1] $end
$var wire 1 : HEX3 [2] $end
$var wire 1 ; HEX3 [3] $end
$var wire 1 < HEX3 [4] $end
$var wire 1 = HEX3 [5] $end
$var wire 1 > HEX3 [6] $end
$var reg 3 K state [2:0] $end
$var reg 3 L nextstate [2:0] $end
$var reg 28 M display [0:27] $end
$var wire 1 N aux [0] $end
$var wire 1 O aux [1] $end
$var wire 1 P aux [2] $end
$var wire 1 Q aux [3] $end
$var wire 1 R aux [4] $end
$var wire 1 S aux [5] $end
$var wire 1 T aux [6] $end
$var wire 1 U btn $end
$var wire 1 V rst $end

$scope module seg0 $end
$var wire 1 E bcd_in [3] $end
$var wire 1 F bcd_in [2] $end
$var wire 1 G bcd_in [1] $end
$var wire 1 H bcd_in [0] $end
$var reg 7 W bcd_out [0:6] $end
$upscope $end
$upscope $end
$upscope $end
$enddefinitions $end
#0
$dumpvars
b0 !
b1 "
b0 K
b101 L
b1111111111111111111111111111 M
b1 W
b0 ?
b1 @
b10 A
b11 B
b100 C
b101 D
1)
1(
1'
1&
1%
1$
1#
10
1/
1.
1-
1,
1+
1*
17
16
15
14
13
12
11
1>
1=
1<
1;
1:
19
18
1T
0S
0R
0Q
0P
0O
0N
1U
0V
1J
0I
0H
0G
0F
0E
$end
#10000
b11 "
1I
1V
#20000
b1 !
1H
b1001111 W
b0 L
b1 L
1S
1R
1Q
1N
#30000
b10 "
0J
0U
b1001111111111111111111111111 M
b1 K
0:
09
b101 L
#40000
b11 "
1J
1U
#50000
b10 !
0H
1G
b10010 W
b1 L
b10 L
0T
0R
0Q
1P
0N
#60000
b10 "
0J
0U
b1001111100111111111111111111 M
b10010100111111111111111111 M
b10 K
03
02
0>
0<
0;
1:
08
b101 L
#70000
b11 "
1J
1U
#80000
b11 !
1H
b110 W
b10 L
b11 L
1R
0P
#90000
b10 "
0J
0U
b10010001001010011111111111 M
b110001001010011111111111 M
b11 K
0,
0+
07
05
04
13
01
1<
0:
b101 L
#100000
b11 "
1J
1U
#110000
b100 !
0H
0G
1F
b1001100 W
b11 L
b100 L
0S
1Q
1N
#120000
b10 "
0J
0U
b110000011000100101001111 M
b1001100000011000100101001111 M
b100 K
0%
0$
00
0.
0-
1,
0*
15
03
0=
1;
18
#130000
b11 "
1J
1U
#190000
b1 "
0I
0V
b0 K
b1111111111111111111111111111 M
1%
1$
10
1.
1-
1+
1*
17
14
13
12
11
1>
1=
1:
19
b0 L
b101 L
#200000
b11 "
1I
1V
#210000
b1001 !
1H
0F
1E
b100 W
b0 L
b101 L
0Q
0N
#220000
b10 "
0J
0U
b101 K
b1111111110000000010001000010 M
0)
0'
0&
0%
0$
00
0/
0.
0,
0+
0*
07
06
05
04
03
#230000
b11 "
1J
1U
